Player Name,Score,Position (Optional),Team (Optional)
Joe Hart,89,,
Michail Antonio,77,,
Andy Carroll,68,,
Javier Hernandez,42,,
Joe Hart,89,,
Michail Antonio,77,,
Andy Carroll,68,,
Javier Hernandez,42,,
Joe Hart,89,,
Michail Antonio,77,,
Andy Carroll,68,,
Javier Hernandez,42,,
Joe Hart,89,,
Michail Antonio,77,,
Andy Carroll,68,,
Javier Hernandez,42,,
,,,
,,,
,,,
,,,
,,,
,,,
,,,
,,,
,,,
,,,
,,,
,,,
,,,
,,,
,,,
,,,
,,,
,,,
,,,
,,,
,,,
,,,
,,,
,,,
,,,
,,,
,,,
,,,
,,,
,,,
,,,
,,,
,,,
,,,
,,,
,,,
,,,
,,,
,,,
,,,
,,,
,,,
,,,
,,,
,,,
,,,
,,,
,,,
,,,
,,,
,,,
,,,
,,,
,,,
,,,
,,,
,,,
,,,
,,,
,,,
,,,
,,,
,,,
,,,
,,,
,,,
,,,
,,,
,,,
,,,
,,,
,,,
,,,
,,,
,,,
,,,
,,,
,,,
,,,
,,,
,,,
,,,
,,,
,,,
,,,
,,,
,,,
,,,
,,,
,,,
,,,
,,,
,,,
,,,
,,,
,,,
,,,
,,,
,,,
,,,
,,,
,,,
,,,
,,,
,,,
,,,
,,,
,,,
,,,
,,,
,,,
,,,
