Player Name,Score,Position (Optional),Team (Optional)
Lionel Messi,284,,
James Rodriguez,209,,
Robert Lewandowski,154,,
Corentin Tolisso,133,,
Arturo Vidal,105,,
Thomas Muller,84,,
Kingsley Coman,83,,
Mauro Icardi,65,,
Ivan Perisic,57,,
Thiago Alcantara,54,,
Ivan Rakitic,52,,
Andres Iniesta,50,,
Timo Werner,30,,
Reece Oxford,18,,
Jordi Alba,18,,
Luis Suarez,18,,
Breel Embolo,-6,,
,,,
,,,
,,,
,,,
,,,
,,,
,,,
,,,
,,,
,,,
,,,
,,,
,,,
,,,
,,,
,,,
,,,
,,,
,,,
,,,
,,,
,,,
,,,
,,,
,,,
,,,
,,,
,,,
,,,
,,,
,,,
,,,
,,,
,,,
,,,
,,,
,,,
,,,
,,,
,,,
,,,
,,,
,,,
,,,
,,,
,,,
,,,
,,,
,,,
,,,
,,,
,,,
,,,
,,,
,,,
,,,
,,,
,,,
,,,
,,,
,,,
,,,
,,,
,,,
,,,
,,,
,,,
,,,
,,,
,,,
,,,
,,,
,,,
,,,
,,,
,,,
,,,
,,,
,,,
,,,
,,,
,,,
,,,
,,,
,,,
,,,
,,,
,,,
,,,
,,,
,,,
,,,
,,,
,,,
,,,
,,,
,,,
,,,
,,,
,,,
,,,
,,,
,,,
,,,
,,,
,,,
,,,
,,,
,,,
,,,
,,,
