Player Name,Score,Position (Optional),Team (Optional)
Alejandro Gomez,231,,
Andre Silva,207,,
Mario Balotelli,205,,
Mouctar Diakhaby,196,,
Bryan Cristante,189,,
Mikel Oyarzabal,174,,
Rodrigo Hernandez,174,,
Remo Freuler,170,,
Dante,170,,
Patrick Cutrone,168,,
Alberto de la Bella,158,,
Rafael,156,,
Jean Seri,152,,
Vincent Koziello,150,,
Lucas Biglia,148,,
Nabil Fekir,147,,
Asier Illarramendi,144,,
Aritz Aduriz,135,,
David Lopez,134,,
Timo Horn,131,,
Arnaud Souquet,129,,
Alvaro Odriozola,128,,
Luis Alberto,119,,
Mohamed Elneny,118,,
Sergio Canales,118,,
Fabio Borini,117,,
Marten de Roon,115,,
Hakan Calhanoglu,114,,
Francis Coquelin,114,,
Christophe Jallet,112,,
Rob Holding,111,,
Mateo Musacchio,109,,
Stefan Posch,108,,
Manu Trigueros,107,,
Anthony Lopes,107,,
Victor Ruiz,105,,
Geronimo Rulli,102,,
Rafael Toloi,100,,
Andre Zambo Anguissa,99,,
Mikel Balenziaga,98,,
Aymeric Laporte,96,,
Hiroki Sakai,92,,
Lucas Tousart,89,,
Inaki Williams,89,,
Inigo Lekue,88,,
Jack Wilshere,88,,
Juan Lopez,85,,
Marvin Plattenhardt,83,,
Pablo Fornals,82,,
Andrea Petagna,82,,
Adil Rami,80,,
Florian Thauvin,79,,
Joel Robles,77,,
Memphis Depay,76,,
Andrea Masiello,76,,
Pawel Olkowski,75,,
Oliver Baumann,74,,
Timothy Castagne,73,,
Luiz Gustavo,71,,
Alassane Plea,68,,
Milos Jojic,64,,
Ander Iturraspe,62,,
Etrit Berisha,61,,
Gianluigi Donnarumma,60,,
Morgan Sanson,57,,
Leonardo Bonucci,57,,
Carlos Bacca,56,,
Mattia Caldara,55,,
Carlos Vela,55,,
Mathew Leckie,54,,
Sandro Ramirez,52,,
Dominic Maroh,52,,
Pierre Lees-Melou,51,,
Kevin Vogt,50,,
Dimitri Payet,50,,
Mitchell Weiser,47,,
Karim Rekik,46,,
Florian Grillitsch,44,,
Roberto Soriano,44,,
Kerem Demirbay,42,,
Manuel Locatelli,40,,
David Ospina,40,,
Steven Zuber,39,,
Nadiem Amiri,38,,
Wayne Rooney,37,,
Alex Iwobi,35,,
Lucas Ocampos,35,,
Mikel San Jose,35,,
Calum Chambers,34,,
Mark Uth,32,,
Reiss Nelson,28,,
Gustavo Gomez,28,,
Michael Keane,28,,
Igor Zubeldia,26,,
Valere Germain,22,,
Danny Welbeck,21,,
Ashley Williams,21,,
Remi Walter,18,,
Yoan Cardinale,18,,
Riccardo Montolivo,18,,
Adnan Januzaj,18,,
Kenny Tete,18,,
Aritz Elustondo,18,,
Nampalys Mendy,18,,
Mario Gaspar,18,,
Alvaro Gonzalez,18,,
Giacomo Bonaventura,18,,
Jasmin Kurtic,18,,
Oscar de Marcos,18,,
Jaume Costa,18,,
Josip Ilicic,18,,
Serge Gnabry,15,,
Steve Mandanda,14,,
Adam Marusic,11,,
Tom Davies,10,,
Davie Selke,6,,
Davy Klaassen,6,,
Dennis Geiger,4,,
Thomas Strakosha,0,,
Stefan de Vrij,0,,
,,,
,,,
,,,
,,,
,,,
,,,
,,,
,,,
,,,
,,,
,,,
,,,
,,,
,,,
,,,
,,,
,,,
,,,
,,,
,,,
,,,
,,,
,,,
,,,
,,,
,,,
,,,
,,,
,,,
,,,
,,,
,,,
,,,
,,,
,,,
,,,
,,,
,,,
,,,
,,,
,,,
,,,
,,,
,,,
,,,
,,,
,,,
,,,
,,,
,,,
,,,
,,,
,,,
,,,
,,,
,,,
,,,
,,,
,,,
,,,
,,,
,,,
,,,
,,,
,,,
,,,
,,,
,,,
,,,
,,,
,,,
,,,
,,,
,,,
,,,
,,,
,,,
,,,
,,,
,,,
,,,
,,,
,,,
,,,
,,,
,,,
,,,
,,,
,,,
,,,
,,,
,,,
,,,
,,,
,,,
,,,
,,,
,,,
,,,
,,,
,,,
,,,
,,,
,,,
,,,
,,,
,,,
,,,
,,,
,,,
,,,
,,,
,,,
,,,
,,,
,,,
,,,
,,,
,,,
,,,
,,,
,,,
,,,
,,,
,,,
,,,
,,,
,,,
,,,
,,,
,,,
,,,
,,,
,,,
,,,
,,,
,,,
,,,
,,,
,,,
,,,
,,,
,,,
,,,
,,,
,,,
,,,
,,,
,,,
,,,
,,,
,,,
,,,
,,,
,,,
,,,
,,,
,,,
,,,
,,,
,,,
,,,
,,,
,,,
,,,
,,,
,,,
,,,
,,,
,,,
,,,
,,,
,,,
,,,
,,,
,,,
,,,
,,,
,,,
,,,
,,,
,,,
,,,
,,,
,,,
,,,
,,,
,,,
,,,
,,,
,,,
,,,
,,,
,,,
,,,
,,,
,,,
,,,
,,,
,,,
,,,
,,,
,,,
,,,
,,,
,,,
,,,
,,,
,,,
,,,
,,,
,,,
,,,
,,,
,,,
,,,
,,,
,,,
,,,
,,,
,,,
,,,
,,,
,,,
,,,
,,,
,,,
,,,
,,,
,,,
,,,
,,,
,,,
,,,
,,,
,,,
,,,
,,,
,,,
,,,
,,,
,,,
,,,
,,,
,,,
,,,
,,,
,,,
,,,
,,,
,,,
,,,
,,,
,,,
